module gitlab.com/awarke/projectn-bolt-go

go 1.15

require (
	github.com/aws/aws-sdk-go v1.36.6
	golang.org/x/net v0.0.0-20201209123823-ac852fbbde11 // indirect
	golang.org/x/text v0.3.4 // indirect
)
